{"AV": {'age': 6*4, "gender": "M", "color": "cornflowerblue"}, 
            "EV": {"age": 5.5*12*4, "gender": "F", "color": "violet"},
            "HC CM": {"age": 6*12*4, "gender": "F", "color": "green"},
            "AG044": {"age": 15, "gender": "F", "color": "limegreen"},
            "AG015": {"age": 3/7, "gender": "M", "color": "cyan"},
            "HV": {"age": 37*12*4, "gender": "F", "color": "darkviolet"},
            "MV": {"age": 37*12*4, "gender": "M", "color": "royalblue"},
            "HC IK": {"age": 32*12*4, "gender": "F", "color": "gray"},
            "HC OZ": {"age": 35*12*4, "gender": "M", "color": "yellow"},
            "HC NA0730":{"age": np.nan, "gender": np.nan, "color": "coral"}}
